<?xml version="1.0" encoding="utf-8"?>
<!-- Generator: Adobe Illustrator 16.0.3, SVG Export Plug-In . SVG Version: 6.00 Build 0)  -->
<!DOCTYPE svg PUBLIC "-//W3C//DTD SVG 1.1//EN" "http://www.w3.org/Graphics/SVG/1.1/DTD/svg11.dtd" [
	<!ENTITY ns_extend "http://ns.adobe.com/Extensibility/1.0/">
	<!ENTITY ns_ai "http://ns.adobe.com/AdobeIllustrator/10.0/">
	<!ENTITY ns_graphs "http://ns.adobe.com/Graphs/1.0/">
	<!ENTITY ns_vars "http://ns.adobe.com/Variables/1.0/">
	<!ENTITY ns_imrep "http://ns.adobe.com/ImageReplacement/1.0/">
	<!ENTITY ns_sfw "http://ns.adobe.com/SaveForWeb/1.0/">
	<!ENTITY ns_custom "http://ns.adobe.com/GenericCustomNamespace/1.0/">
	<!ENTITY ns_adobe_xpath "http://ns.adobe.com/XPath/1.0/">
]>
<svg version="1.1" id="Layer_1" xmlns:x="&ns_extend;" xmlns:i="&ns_ai;" xmlns:graph="&ns_graphs;"
	 xmlns="http://www.w3.org/2000/svg" xmlns:xlink="http://www.w3.org/1999/xlink" x="0px" y="0px" width="60px" height="60px"
	 viewBox="0 0 60 60" enable-background="new 0 0 60 60" xml:space="preserve">
<metadata>
	<sfw  xmlns="&ns_sfw;">
		<slices></slices>
		<sliceSourceBounds  height="1926.426" width="1031.334" y="-1926.426" x="-126" bottomLeftOrigin="true"></sliceSourceBounds>
	</sfw>
</metadata>
<g>
	<g>
		<path fill="#E86624" d="M30,1.5c15.715,0,28.5,12.785,28.5,28.5S45.715,58.5,30,58.5S1.5,45.715,1.5,30S14.285,1.5,30,1.5 M30,0
			C13.432,0,0,13.432,0,30c0,16.569,13.432,30,30,30s30-13.431,30-30C60,13.432,46.568,0,30,0L30,0z"/>
	</g>
</g>
<g>
	<path fill="none" stroke="#E86624" stroke-width="1.5" stroke-miterlimit="10" d="M46.004,38.35c0,1.153-0.934,2.088-2.087,2.088
		H16.084c-1.153,0-2.088-0.935-2.088-2.088V17.476c0-1.153,0.935-2.088,2.088-2.088h27.833c1.153,0,2.087,0.935,2.087,2.088V38.35z"
		/>
	<line fill="none" stroke="#E86624" stroke-width="1.5" stroke-miterlimit="10" x1="20.258" y1="44.612" x2="39.742" y2="44.612"/>
	<polygon fill="none" stroke="#E86624" stroke-width="1.5" stroke-miterlimit="10" points="34.871,44.612 25.129,44.612 
		26.521,40.438 33.479,40.438 	"/>
	
		<rect x="16.779" y="18.171" fill="none" stroke="#E86624" stroke-width="1.5" stroke-miterlimit="10" width="26.441" height="16.699"/>
	<circle fill="none" stroke="#E86624" stroke-width="1.5" stroke-miterlimit="10" cx="30" cy="37.654" r="0.696"/>
</g>
</svg>
