<?xml version="1.0" encoding="utf-8"?>
<!-- Generator: Adobe Illustrator 16.0.3, SVG Export Plug-In . SVG Version: 6.00 Build 0)  -->
<!DOCTYPE svg PUBLIC "-//W3C//DTD SVG 1.1//EN" "http://www.w3.org/Graphics/SVG/1.1/DTD/svg11.dtd">
<svg version="1.1" id="Layer_1" xmlns="http://www.w3.org/2000/svg" xmlns:xlink="http://www.w3.org/1999/xlink" x="0px" y="0px"
	 width="40px" height="40px" viewBox="0 0 40 40" enable-background="new 0 0 40 40" xml:space="preserve">
<g>
	<g>
		<path fill="#003768" d="M1.334,19.998C1.334,9.705,9.707,1.331,20,1.331s18.666,8.374,18.666,18.667S30.293,38.665,20,38.665
			S1.334,30.291,1.334,19.998 M0,19.998c0,11.045,8.955,20.001,20,20.001s20-8.956,20-20.001C40,8.952,31.045-0.001,20-0.001
			S0,8.952,0,19.998L0,19.998z"/>
	</g>
	<polyline fill="none" stroke="#003768" stroke-width="1.3333" stroke-miterlimit="10" points="25.902,29.887 14.098,19.998 
		25.902,10.11 	"/>
</g>
</svg>
