<?xml version="1.0" encoding="utf-8"?>
<!-- Generator: Adobe Illustrator 16.0.3, SVG Export Plug-In . SVG Version: 6.00 Build 0)  -->
<!DOCTYPE svg PUBLIC "-//W3C//DTD SVG 1.1//EN" "http://www.w3.org/Graphics/SVG/1.1/DTD/svg11.dtd">
<svg version="1.1" id="Layer_1" xmlns="http://www.w3.org/2000/svg" xmlns:xlink="http://www.w3.org/1999/xlink" x="0px" y="0px"
	 width="40px" height="40px" viewBox="0 0 40 40" enable-background="new 0 0 40 40" xml:space="preserve">
<g>
	<g>
		<path fill="#fff" d="M38.667,20.001c0,10.293-8.373,18.667-18.666,18.667S1.335,30.294,1.335,20.001S9.708,1.334,20.001,1.334
			S38.667,9.708,38.667,20.001 M40.001,20.001C40.001,8.956,31.046,0,20.001,0s-20,8.956-20,20.001c0,11.046,8.955,19.999,20,19.999
			S40.001,31.047,40.001,20.001L40.001,20.001z"/>
	</g>
	<polyline fill="none" stroke="#fff" stroke-width="1.3333" stroke-miterlimit="10" points="14.099,10.112 25.903,20.001 
		14.099,29.889 	"/>
</g>
</svg>
