<?xml version="1.0" encoding="utf-8"?>
<!-- Generator: Adobe Illustrator 16.0.3, SVG Export Plug-In . SVG Version: 6.00 Build 0)  -->
<!DOCTYPE svg PUBLIC "-//W3C//DTD SVG 1.1//EN" "http://www.w3.org/Graphics/SVG/1.1/DTD/svg11.dtd" [
	<!ENTITY ns_flows "http://ns.adobe.com/Flows/1.0/">
	<!ENTITY ns_extend "http://ns.adobe.com/Extensibility/1.0/">
	<!ENTITY ns_ai "http://ns.adobe.com/AdobeIllustrator/10.0/">
	<!ENTITY ns_graphs "http://ns.adobe.com/Graphs/1.0/">
	<!ENTITY ns_vars "http://ns.adobe.com/Variables/1.0/">
	<!ENTITY ns_imrep "http://ns.adobe.com/ImageReplacement/1.0/">
	<!ENTITY ns_sfw "http://ns.adobe.com/SaveForWeb/1.0/">
	<!ENTITY ns_custom "http://ns.adobe.com/GenericCustomNamespace/1.0/">
	<!ENTITY ns_adobe_xpath "http://ns.adobe.com/XPath/1.0/">
]>
<svg version="1.1" id="Layer_1" xmlns:x="&ns_extend;" xmlns:i="&ns_ai;" xmlns:graph="&ns_graphs;"
	 xmlns="http://www.w3.org/2000/svg" xmlns:xlink="http://www.w3.org/1999/xlink" xmlns:a="http://ns.adobe.com/AdobeSVGViewerExtensions/3.0/"
	 x="0px" y="0px" width="360px" height="308.614px" viewBox="-167.5 -141.807 360 308.614"
	 enable-background="new -167.5 -141.807 360 308.614" xml:space="preserve">
<metadata>
	<sfw  xmlns="&ns_sfw;">
		<slices></slices>
		<sliceSourceBounds  height="308.614" width="360" bottomLeftOrigin="true" x="-167.5" y="-141.807"></sliceSourceBounds>
	</sfw>
</metadata>
<title>Asset 1</title>
<g id="Layer_2">
	<g id="Layer_1-2">
		<polygon fill="#D22E2E" points="-167.5,166.807 -64.669,63.855 -64.669,166.807 		"/>
		<polygon fill="#E53A34" points="-64.669,63.855 38.192,-38.916 38.192,63.855 		"/>
		<polygon fill="#C52728" points="38.192,166.807 -64.669,63.855 38.192,63.855 		"/>
		<polygon fill="#B62025" points="141.145,63.855 38.192,166.807 38.192,63.855 		"/>
		<polygon fill="#D22E2E" points="38.192,-38.916 141.145,63.855 38.192,63.855 		"/>
		<polygon fill="#E53A34" points="38.192,-141.807 141.145,-38.916 38.192,-38.916 		"/>
		<polygon fill="#D22E2E" points="141.145,-38.916 192.5,12.44 141.145,12.44 		"/>
		<polygon points="141.145,63.855 38.192,-38.916 141.145,-38.916 		"/>
	</g>
</g>
</svg>
