<?xml version="1.0" encoding="utf-8"?>
<!-- Generator: Adobe Illustrator 16.0.3, SVG Export Plug-In . SVG Version: 6.00 Build 0)  -->
<!DOCTYPE svg PUBLIC "-//W3C//DTD SVG 1.1//EN" "http://www.w3.org/Graphics/SVG/1.1/DTD/svg11.dtd">
<svg version="1.1" id="Layer_1" xmlns="http://www.w3.org/2000/svg" xmlns:xlink="http://www.w3.org/1999/xlink" x="0px" y="0px"
	 width="30px" height="30px" viewBox="18.5 18.5 30 30" enable-background="new 18.5 18.5 30 30" xml:space="preserve">
<path fill="#FFFFFF" d="M41.918,40.568v-5.855c0-3.138-1.675-4.598-3.907-4.598c-1.802,0-2.61,0.991-3.06,1.687v-1.446h-3.396
	c0.045,0.958,0,10.213,0,10.213h3.396v-5.704c0-0.304,0.021-0.609,0.111-0.827c0.246-0.61,0.804-1.242,1.741-1.242
	c1.229,0,1.72,0.938,1.72,2.31v5.465L41.918,40.568L41.918,40.568z M27.979,28.961c1.184,0,1.921-0.785,1.921-1.766
	c-0.022-1.001-0.737-1.764-1.898-1.764s-1.92,0.762-1.92,1.764c0,0.98,0.737,1.766,1.876,1.766H27.979z M33.5,48.5
	c-8.284,0-15-6.716-15-15s6.716-15,15-15s15,6.716,15,15S41.784,48.5,33.5,48.5z M29.677,40.568V30.355h-3.395v10.213H29.677z"/>
</svg>
