<?xml version="1.0" encoding="utf-8"?>
<!-- Generator: Adobe Illustrator 16.0.3, SVG Export Plug-In . SVG Version: 6.00 Build 0)  -->
<!DOCTYPE svg PUBLIC "-//W3C//DTD SVG 1.1//EN" "http://www.w3.org/Graphics/SVG/1.1/DTD/svg11.dtd" [
	<!ENTITY ns_extend "http://ns.adobe.com/Extensibility/1.0/">
	<!ENTITY ns_ai "http://ns.adobe.com/AdobeIllustrator/10.0/">
	<!ENTITY ns_graphs "http://ns.adobe.com/Graphs/1.0/">
	<!ENTITY ns_vars "http://ns.adobe.com/Variables/1.0/">
	<!ENTITY ns_imrep "http://ns.adobe.com/ImageReplacement/1.0/">
	<!ENTITY ns_sfw "http://ns.adobe.com/SaveForWeb/1.0/">
	<!ENTITY ns_custom "http://ns.adobe.com/GenericCustomNamespace/1.0/">
	<!ENTITY ns_adobe_xpath "http://ns.adobe.com/XPath/1.0/">
]>
<svg version="1.1" id="Layer_1" xmlns:x="&ns_extend;" xmlns:i="&ns_ai;" xmlns:graph="&ns_graphs;"
	 xmlns="http://www.w3.org/2000/svg" xmlns:xlink="http://www.w3.org/1999/xlink" x="0px" y="0px" width="74.997px"
	 height="77.996px" viewBox="0 0 74.997 77.996" enable-background="new 0 0 74.997 77.996" xml:space="preserve">
<metadata>
	<sfw  xmlns="&ns_sfw;">
		<slices></slices>
		<sliceSourceBounds  height="70.05" width="68.8" x="326.191" y="325.885" bottomLeftOrigin="true"></sliceSourceBounds>
	</sfw>
</metadata>
<g>
	
		<polyline fill="none" stroke="#FFFFFF" stroke-width="10.8" stroke-linecap="round" stroke-linejoin="round" stroke-miterlimit="10" points="
		24.749,9.373 8.499,9.373 8.499,68.623 66.499,68.623 66.499,50.873 	"/>
	
		<line fill="none" stroke="#FFFFFF" stroke-width="10.8" stroke-linecap="round" stroke-linejoin="round" stroke-miterlimit="10" x1="29.499" y1="47.873" x2="66.499" y2="10.873"/>
	
		<polyline fill="none" stroke="#FFFFFF" stroke-width="10.8" stroke-linecap="round" stroke-linejoin="round" stroke-miterlimit="10" points="
		40.5,9.373 66.499,9.373 66.499,34.12 	"/>
</g>
</svg>
