<?xml version="1.0" encoding="utf-8"?>
<!-- Generator: Adobe Illustrator 16.0.3, SVG Export Plug-In . SVG Version: 6.00 Build 0)  -->
<!DOCTYPE svg PUBLIC "-//W3C//DTD SVG 1.1//EN" "http://www.w3.org/Graphics/SVG/1.1/DTD/svg11.dtd">
<svg version="1.1" id="Layer_1" xmlns="http://www.w3.org/2000/svg" xmlns:xlink="http://www.w3.org/1999/xlink" x="0px" y="0px"
	 width="40px" height="40px" viewBox="0 0 40 40" enable-background="new 0 0 40 40" xml:space="preserve">
<g>
	<path stroke="#FFFFFF" fill="#000" fill-opacity="0.5" d="M20,1c10.477,0,19,8.523,19,19s-8.523,19-19,19S1,30.477,1,20S9.523,1,20,1"/>
</g>
<line fill="none" stroke="#FFFFFF" stroke-miterlimit="10" x1="26.629" y1="13.371" x2="13.371" y2="26.629"/>
<line fill="none" stroke="#FFFFFF" stroke-miterlimit="10" x1="13.371" y1="13.371" x2="26.629" y2="26.629"/>
</svg>
