<?xml version="1.0" encoding="utf-8"?>
<!-- Generator: Adobe Illustrator 16.0.3, SVG Export Plug-In . SVG Version: 6.00 Build 0)  -->
<!DOCTYPE svg PUBLIC "-//W3C//DTD SVG 1.1//EN" "http://www.w3.org/Graphics/SVG/1.1/DTD/svg11.dtd">
<svg version="1.1" id="Layer_1" xmlns="http://www.w3.org/2000/svg" xmlns:xlink="http://www.w3.org/1999/xlink" x="0px" y="0px"
	 width="90px" height="75px" viewBox="0 0 90 75" enable-background="new 0 0 90 75" xml:space="preserve">
<g>
	<path fill="#FFFFFF" d="M71.242,72.461c-0.488,0-0.967-0.207-1.289-0.594l-9.516-11.242H14.719
		c-6.219,0-11.283-5.064-11.283-11.283v-35.52c0-6.221,5.064-11.283,11.283-11.283h60.563c6.229,0,11.283,5.063,11.283,11.283v35.52
		c0,6.219-5.063,11.283-11.283,11.283h-2.354v10.143c0,0.711-0.439,1.348-1.107,1.594C71.631,72.428,71.432,72.461,71.242,72.461
		L71.242,72.461z M14.719,5.926c-4.363,0-7.896,3.543-7.896,7.896v35.52c0,4.354,3.541,7.896,7.896,7.896h46.504
		c0.494,0,0.967,0.215,1.289,0.604l7.037,8.309v-7.219c0-0.934,0.76-1.693,1.693-1.693h4.039c4.361,0,7.896-3.543,7.896-7.896
		v-35.52c0-4.354-3.543-7.896-7.896-7.896H14.719z M14.719,5.926"/>
	<path fill="#FFFFFF" d="M35.938,32.078c0,2.18-1.775,3.957-3.955,3.957c-2.189,0-3.957-1.777-3.957-3.957
		c0-2.189,1.768-3.959,3.957-3.959C34.162,28.119,35.938,29.889,35.938,32.078L35.938,32.078z M35.938,32.078"/>
	<path fill="#FFFFFF" d="M48.957,32.078c0,2.18-1.768,3.957-3.957,3.957c-2.182,0-3.957-1.777-3.957-3.957
		c0-2.189,1.775-3.959,3.957-3.959C47.189,28.119,48.957,29.889,48.957,32.078L48.957,32.078z M48.957,32.078"/>
	<path fill="#FFFFFF" d="M62.791,32.078c0,2.18-1.775,3.957-3.955,3.957c-2.189,0-3.957-1.777-3.957-3.957
		c0-2.189,1.768-3.959,3.957-3.959C61.016,28.119,62.791,29.889,62.791,32.078L62.791,32.078z M62.791,32.078"/>
</g>
</svg>
