<?xml version="1.0" encoding="utf-8"?>
<!-- Generator: Adobe Illustrator 16.0.3, SVG Export Plug-In . SVG Version: 6.00 Build 0)  -->
<!DOCTYPE svg PUBLIC "-//W3C//DTD SVG 1.1//EN" "http://www.w3.org/Graphics/SVG/1.1/DTD/svg11.dtd">
<svg version="1.1" id="Layer_1" xmlns="http://www.w3.org/2000/svg" xmlns:xlink="http://www.w3.org/1999/xlink" x="0px" y="0px"
	 width="9.825px" height="15.688px" viewBox="0 0 9.825 15.688" enable-background="new 0 0 9.825 15.688" xml:space="preserve">
<polygon fill="#464546" points="0,6.698 9.724,6.698 4.862,0 "/>
<polygon fill="#464546" points="9.724,8.989 0,8.989 4.862,15.688 "/>
</svg>
