<?xml version="1.0" encoding="utf-8"?>
<!-- Generator: Adobe Illustrator 16.0.3, SVG Export Plug-In . SVG Version: 6.00 Build 0)  -->
<!DOCTYPE svg PUBLIC "-//W3C//DTD SVG 1.1//EN" "http://www.w3.org/Graphics/SVG/1.1/DTD/svg11.dtd">
<svg version="1.1" id="Layer_1" xmlns="http://www.w3.org/2000/svg" xmlns:xlink="http://www.w3.org/1999/xlink" x="0px" y="0px"
	 width="40px" height="40px" viewBox="0 0 40 40" enable-background="new 0 0 40 40" xml:space="preserve">
<g>
	<g>
		<path fill="#474647" d="M38.666,20.001c0,10.293-8.373,18.667-18.666,18.667S1.334,30.294,1.334,20.001S9.707,1.334,20,1.334
			S38.666,9.708,38.666,20.001 M40,20.001C40,8.956,31.045,0,20,0S0,8.956,0,20.001C0,31.047,8.955,40,20,40S40,31.047,40,20.001
			L40,20.001z"/>
	</g>
</g>
<line fill="none" stroke="#474647" stroke-width="1.3333" stroke-miterlimit="10" x1="7.189" y1="20" x2="32.811" y2="20"/>
<line fill="none" stroke="#474647" stroke-width="1.3333" stroke-miterlimit="10" x1="20" y1="7.189" x2="20" y2="32.811"/>
</svg>
